…
<p class="aligncenter">

<img src="man/figures/gesundheitsaemter_merging.png" alt="how to merge" width=60% align="middle" />

</p>

## Explore Data

The primary data set with an overview of all German Health Authorities
is `health_departments`:

``` r
library(gesundheitsaemter)
health_departments
#> # A tibble: 399 x 8
#>    authority_id name      department      street    postalcode place  long   lat
#>    <chr>        <chr>     <chr>           <chr>     <chr>      <chr> <dbl> <dbl>
#>  1 1            Stadt Fl~ Fachbereich 2 ~ Norderst~ 24939      Flen~  9.43  54.8
#>  2 2            Landesha~ Amt für Gesund~ Fleethör~ 24103      Kiel  10.1   54.3
#>  3 3            Hansesta~ Gesundheitsamt  Sophiens~ 23560      Lübe~ 10.7   53.9
#>  4 4            Stadt Ne~ Gesundheitsamt  Meßtorff~ 24534      Neum~  9.99  54.1
#>  5 5            Kreis Di~ Fachdienst Ges~ Esmarchs~ 25746      Heide  9.08  54.2
#>  6 6            Kreis No~ Fachdienst Ges~ Damm 8    25813      Husum  9.05  54.5
#>  7 7            Kreis Os~ Fachdienst Ges~ Holstens~ 23701      Eutin 10.6   54.1
#>  8 8            Kreisver~ Fachdienst Ges~ Kurt-Wag~ 25337      Elms~  9.70  53.7
#>  9 9            Kreis Re~ Fachdienst 4.3~ Kaiserst~ 24768      Rend~  9.67  54.3
#> 10 10           Kreis Sc~ Fachdienst Ges~ Moltkest~ 24837      Schl~  9.56  54.5
#> # ... with 389 more rows
```
…
